1 10 20
100 200 125
201 210 89
900 1000 174
10 1 20
570 400 142
3950 2090 238
89933 48594 351
650 500 145
1 1 1
555 555 31
23934 23934 145
38482 38482 76
2 2 2
98573 98573 160
999991 999993 166
1 1003 179
9212 1111 262
2394 34288 311
34243 43284 324
1 12943 268
3940 3857 176
20293 48573 324
84730 34873 351
34837 38483 324
9847 3729 262
2 20 21
384 382 46
34837 23843 311
38438 20 324
20 20 8
100 100 26
3832 38432 324
200 300 128
2500 3000 217
34283 34283 86
9584 9584 123
38439 34829 324
38372 38201 213
203 300 128
400 600 142
350 400 126
85938 32848 351
99999 99999 227
956739 956006 352
982165 982843 383
37293 43829 306
45640 50056 314
53894 60453 322
538 600 137
1000 20000 279
34833 35944 324
69484 79900 351
3482 4000 238
193 200 120
600 800 171
3432 3432 106
800 600 171
393 393 59
500 400 142
9234 1000 262
9234 10000 260
4382 3482 238
3832 4000 189
69705 68494 299
59430 45839 340
49383 39048 314
8495 8899 216
1 10000 262
34733 34732 112
43939 45483 314
234 300 128
400 605 142
10034 34920 311
39203 30203 324
40000 40000 32
38429 39458 275
48945 50009 296
58493 60000 304
48323 50235 296
20344 20344 181
400 400 28
20045 20045 93
50000 5000 324
10000 1000 262
39348 2030 324
4389 329 238
43823 4903 324
6945 4349 262
9420 10000 242
4392 59853 340
6000 7000 262
4534 5000 210
43429 60000 340
34392 43923 324
5934 6000 187
56498 60975 335
45493 50000 314
54390 60000 322
10000 10000 30
30000 30000 179
49595 49595 141
2000 3000 217
4000 5000 215
5000 4000 215
3000 2000 217
39434 39434 45
2000 2000 113
4953 4953 42
4034 4034 70
