.......
----------------------------------------------------------------------
Ran 8 tests in 0.015s

OK
Name             Stmts   Miss Branch BrPart  Cover   Missing
------------------------------------------------------------
Collatz.py          43      0     14      0   100%
TestCollatz.py      35      0      0      0   100%
------------------------------------------------------------
TOTAL               78      0     14      0   100%