1 1 1
1 2 2
1 3 8
1 4 8
1 5 8
1 6 9
1 7 17
1 8 17
1 9 20
1 10 20
1 11 20
1 12 20
1 13 20
1 14 20
1 15 20
1 16 20
1 17 20
1 18 21
1 19 21
1 20 21
1 21 21
1 22 21
1 23 21
1 24 21
1 25 24
1 50 112
1 55 113
1 100 119
1 555 144
1 1000 179
1 2000 182
1 5000 238
1 9000 262
1 9001 262
1 9500 262
1 9999 262
2 1 2
2 10 20
2 100 119
2 1000 179
3 1 8
4 2 8
5 5 6
5 10 20
5 20 21
20 5 21
30 40 107
40 30 107
42 420 144
50 90 116
50 100 119
50 1000 179
55 42 113
60 100 119
100 200 125
100 1000 179
123 456 144
200 2000 182
201 210 89
250 500 144
300 1000 179
300 3000 217
500 800 171
500 1000 179
500 5000 238
515 5515 238
555 1 144
555 420 142
555 5555 238
900 1000 174
900 1100 174
999 1000 112
1000 1000 112
1000 1250 182
1000 1500 182
1000 2500 209
1000 5000 238
1100 1000 169
1200 4500 238
1500 3000 217
2000 5000 238
2500 5000 238
2500 7000 262
3000 4000 238
3000 6000 238
3000 7500 262
4000 10000 262
4200 5555 215
5000 100 238
5000 1000 238
5000 9999 262
5005 5555 205
5555 4200 215
5555 5555 130
6000 5000 236
6666 5555 262
7000 10000 260
7500 10000 260
7777 10000 260
9999 10000 92
10000 1 262
10000 500 262
10000 1001 262
10000 1010 262
10000 2000 262
10000 5000 262
10000 9999 92
10000 10000 30
10001 10001 180
99999 99999 227
