..................
----------------------------------------------------------------------
Ran 18 tests in 0.115s

OK
Name             Stmts   Miss Branch BrPart  Cover   Missing
------------------------------------------------------------
Collatz.py          44      0     18      0   100%
TestCollatz.py      77      0      0      0   100%
------------------------------------------------------------
TOTAL              121      0     18      0   100%
