1 1 1
1 2 2
2 2 2
1 5 8
5 5 6
5 10 20
1 10 20
10 10 7
20 45 112
1 50 112
50 75 116
1 75 116
75 100 119
50 100 119
1 100 119
100 200 125
201 210 89
211 215 102
250 275 123
225 300 128
200 300 128
100 300 128
75 300 128
250 310 123
310 315 131
310 340 144
300 350 144
10 400 144
400 500 142
500 600 137
600 700 145
900 1000 174
500 1000 179
1 1000 179
1000 1500 182
1 2000 182
2000 2500 209
4000 5000 215
5000 5900 236
7500 7600 208
1 10000 262
10000 11000 268
10000 11000 268
10000 12000 268
11000 12000 250
12000 13000 263
14000 15000 271
10000 15000 276
15000 15500 271
15000 16000 271
16000 17000 266
17000 17500 235
17500 18000 279
18000 18500 248
18500 18600 261
19000 20000 274
18000 20000 274
19500 19750 274
21000 22000 269
20000 22000 269
22500 23000 269
23500 23600 282
23700 23710 189
23700 23750 220
24000 24005 145
24000 24100 251
24000 24500 251
24600 24700 264
24701 24710 145
24715 24716 119
24800 24950 233
24950 24999 202
24500 25000 264
50000 50010 128
50000 50050 234
50100 50101 115
75000 75050 307
85000 85200 240
94000 94100 253
1 100000 351
100000 100075 310
100000 100100 310
100000 100150 310
100100 101000 341
101000 102000 310
100000 102000 341
400000 400001 193
400000 400050 374
450000 450015 232
450020 450100 369
400000 499999 449
750000 750025 256
760000 760500 380
790000 790015 269
790030 790098 269
700000 799999 504
900000 900001 189
900000 900050 233
900000 900100 370
900000 900200 370
900000 900500 370
900000 900500 370
901000 901025 277
910000 910005 202
925010 925011 202
925040 925060 202
930000 930100 326
930100 930150 246
950000 950050 290
950050 950075 127
950050 950080 246
950080 950100 246
990000 990080 290
990000 990100 290
999000 999500 396
999100 999700 396
999400 999800 290
999600 999900 290
999100 999999 396
999900 999998 259
999950 999999 259
999960 999970 259
999975 999980 259
999980 999985 166
999985 999995 259
999990 999995 259
999995 999999 259
999998 999999 259
999999 999999 259
900000 999999 507
